\headcommand {\slideentry {0}{0}{1}{1/1}{}{0}}
\headcommand {\beamer@framepages {1}{1}}
\headcommand {\beamer@sectionpages {1}{1}}
\headcommand {\beamer@subsectionpages {1}{1}}
\headcommand {\sectionentry {1}{Hello World}{2}{Hello World}{0}}
\headcommand {\slideentry {1}{0}{1}{2/2}{}{0}}
\headcommand {\beamer@framepages {2}{2}}
\headcommand {\slideentry {1}{0}{2}{3/3}{}{0}}
\headcommand {\beamer@framepages {3}{3}}
\headcommand {\slideentry {1}{0}{3}{4/5}{}{0}}
\headcommand {\beamer@framepages {4}{5}}
\headcommand {\slideentry {1}{0}{4}{6/7}{}{0}}
\headcommand {\beamer@framepages {6}{7}}
\headcommand {\slideentry {1}{0}{5}{8/8}{}{0}}
\headcommand {\beamer@framepages {8}{8}}
\headcommand {\slideentry {1}{0}{6}{9/10}{}{0}}
\headcommand {\beamer@framepages {9}{10}}
\headcommand {\slideentry {1}{0}{7}{11/12}{}{0}}
\headcommand {\beamer@framepages {11}{12}}
\headcommand {\slideentry {1}{0}{8}{13/13}{}{0}}
\headcommand {\beamer@framepages {13}{13}}
\headcommand {\beamer@partpages {1}{13}}
\headcommand {\beamer@subsectionpages {2}{13}}
\headcommand {\beamer@sectionpages {2}{13}}
\headcommand {\beamer@documentpages {13}}
\headcommand {\gdef \inserttotalframenumber {7}}
