\relax 
\providecommand\hyper@newdestlabel[2]{}
\providecommand{\transparent@use}[1]{}
\providecommand\HyperFirstAtBeginDocument{\AtBeginDocument}
\HyperFirstAtBeginDocument{\ifx\hyper@anchor\@undefined
\global\let\oldcontentsline\contentsline
\gdef\contentsline#1#2#3#4{\oldcontentsline{#1}{#2}{#3}}
\global\let\oldnewlabel\newlabel
\gdef\newlabel#1#2{\newlabelxx{#1}#2}
\gdef\newlabelxx#1#2#3#4#5#6{\oldnewlabel{#1}{{#2}{#3}}}
\AtEndDocument{\ifx\hyper@anchor\@undefined
\let\contentsline\oldcontentsline
\let\newlabel\oldnewlabel
\fi}
\fi}
\global\let\hyper@last\relax 
\gdef\HyperFirstAtBeginDocument#1{#1}
\providecommand\HyField@AuxAddToFields[1]{}
\providecommand\HyField@AuxAddToCoFields[2]{}
\@writefile{nav}{\headcommand {\slideentry {0}{0}{1}{1/1}{}{0}}}
\@writefile{nav}{\headcommand {\beamer@framepages {1}{1}}}
\@writefile{nav}{\headcommand {\slideentry {0}{0}{2}{2/3}{}{0}}}
\@writefile{nav}{\headcommand {\beamer@framepages {2}{3}}}
\@writefile{nav}{\headcommand {\slideentry {0}{0}{3}{4/5}{}{0}}}
\@writefile{nav}{\headcommand {\beamer@framepages {4}{5}}}
\@writefile{nav}{\headcommand {\slideentry {0}{0}{4}{6/6}{}{0}}}
\@writefile{nav}{\headcommand {\beamer@framepages {6}{6}}}
\@writefile{nav}{\headcommand {\slideentry {0}{0}{5}{7/8}{}{0}}}
\@writefile{nav}{\headcommand {\beamer@framepages {7}{8}}}
\@writefile{nav}{\headcommand {\slideentry {0}{0}{6}{9/9}{}{0}}}
\@writefile{nav}{\headcommand {\beamer@framepages {9}{9}}}
\@writefile{nav}{\headcommand {\beamer@partpages {1}{9}}}
\@writefile{nav}{\headcommand {\beamer@subsectionpages {1}{9}}}
\@writefile{nav}{\headcommand {\beamer@sectionpages {1}{9}}}
\@writefile{nav}{\headcommand {\beamer@documentpages {9}}}
\@writefile{nav}{\headcommand {\gdef \inserttotalframenumber {5}}}
\gdef\minted@oldcachelist{,
  default-pyg-prefix.pygstyle,
  default.pygstyle,
  EBA96178B23F435D24B271CA69519E0FAE3620581476E495B6D6ABCCC1C92FB0.pygtex,
  EBA96178B23F435D24B271CA69519E0FAE3620581476E495B6D6ABCCC1C92FB0.pygtex,
  C1AFC5BDBDC47ACC35978C25EDB0DF59AE3620581476E495B6D6ABCCC1C92FB0.pygtex,
  C1AFC5BDBDC47ACC35978C25EDB0DF59AE3620581476E495B6D6ABCCC1C92FB0.pygtex,
  D342CB9C57E362E91ADEDAF1043E3D0EAE3620581476E495B6D6ABCCC1C92FB0.pygtex,
  65703771567312218C85E98B8BF5FD5BAE3620581476E495B6D6ABCCC1C92FB0.pygtex,
  65703771567312218C85E98B8BF5FD5BAE3620581476E495B6D6ABCCC1C92FB0.pygtex}
